Analyses ‘starting to publish’
…
Ethnicity by PhD year

df_starting %>%
    group_by(phd_year, ethnicity3) %>%
    summarize(frequency = n()) -> ethnicity_year

ethnicity_year

#> # A tibble: 120 x 3
#> # Groups:   phd_year [30]
#>    phd_year ethnicity3 frequency
#>       <dbl> <fct>          <int>
#>  1     1990 majority         654
#>  2     1990 minority           3
#>  3     1990 other             50
#>  4     1990 missing          102
#>  5     1991 majority         717
#>  6     1991 minority           7
#>  7     1991 other             58
#>  8     1991 missing          112
#>  9     1992 majority         796
#> 10     1992 minority           8
#> # i 110 more rows
…
